PPOL670 Final Project
…
Recipe

data_rec <- recipe(in_labor~., data = data_training) %>%
  # center and scale all predictors
  step_normalize(all_numeric_predictors()) %>%
  step_corr(all_numeric_predictors()) %>%
  # drop near zero variance predictors
  step_nzv(all_numeric_predictors()) %>%
  step_zv(all_numeric_predictors())
# see the engineered training data
bake(prep(data_rec, training = data_training), new_data = data_training)

# A tibble: 76,768 × 24
   MIG_REG SPM_NUMKIDS SPM_FAMT…¹ SPM_C…²  A_HGA A_MAR…³    HEA SPM_F…⁴ SPM_GE…⁵
     <dbl>       <dbl>      <dbl>   <dbl>  <dbl>   <dbl>  <dbl>   <dbl>    <dbl>
 1  -0.798       0.824   -0.00805 -0.948  -0.461    1.12  1.79  -0.580  -1.00   
 2   1.15        1.63    -0.706   -0.431  -0.461   -1.01 -0.194 -0.438  -0.756  
 3   0.174      -0.792   -0.706    0.0859 -0.461   -1.01  0.796 -0.244  -0.944  
 4   1.15       -0.792    1.39    -0.690  -0.461    1.12 -1.18  -0.359   1.80   
 5  -1.77       -0.792   -0.00805 -0.431   0.942    1.12  2.77  -0.132   0.346  
 6   0.174       0.824   -0.706    0.0859 -1.51     1.12 -1.18  -0.0801  0.309  
 7  -0.798       1.63    -0.706   -0.948  -1.16    -1.01  1.79  -0.682  -0.716  
 8   1.15       -0.792    1.39    -0.431   0.942    1.12 -0.194 -0.238   1.81   
 9   1.15       -0.792   -0.706   -0.550  -1.51    -1.01  0.796 -0.331   1.90   
10   1.15       -0.792   -0.706    0.205  -1.86    -1.01  0.796 -0.289  -0.00448
# … with 76,758 more rows, 15 more variables: PRDTRACE <dbl>, NOW_MCAID <dbl>,
#   NOW_DIR <dbl>, OWNDIR <dbl>, COV <dbl>, AGI <dbl>, RINT_VAL1 <dbl>,
#   DIS_HP <dbl>, DIV_YN <dbl>, PEARNVAL <dbl>, EARNER <dbl>, AGE1 <dbl>,
#   A_SEX <dbl>, case_wts <imp_wts>, in_labor <fct>, and abbreviated variable
#   names ¹​SPM_FAMTYPE, ²​SPM_CAPWKCCXPNS, ³​A_MARITL, ⁴​SPM_FEDTAX, ⁵​SPM_GEOADJ
…
# create a recipe with no outcome variable and all predictors
preprocess_rec <- recipe(~ ., data = data1) %>%
  step_zv(all_numeric_predictors()) %>%
  step_nzv(all_numeric_predictors()) %>%
  # center and scale (normalize) all predictors
  step_normalize(all_numeric_predictors())%>%
  # perform pca and use num_comp = 3 to only keep three components
  step_pca(all_numeric_predictors(),num_comp = 3) %>%
  # run prep to prepare recipe
  prep()

# obtain summary metrics (use number = 3)
tidy(preprocess_rec, number = 3, type = "variance")

# A tibble: 52 × 4
   terms           statistic    value id             
   <chr>           <chr>        <dbl> <chr>          
 1 MIG_REG         mean         2.82  normalize_NshZi
 2 SPM_NUMKIDS     mean         0.980 normalize_NshZi
 3 SPM_ACTC        mean      2802.    normalize_NshZi
 4 SPM_FAMTYPE     mean         2.01  normalize_NshZi
 5 SPM_CAPWKCCXPNS mean      3631.    normalize_NshZi
 6 A_HGA           mean        40.3   normalize_NshZi
 7 A_MARITL        mean         3.83  normalize_NshZi
 8 HEA             mean         2.20  normalize_NshZi
 9 SPM_FEDTAX      mean      8661.    normalize_NshZi
10 SPM_GEOADJ      mean         1.02  normalize_NshZi
# … with 42 more rows
…
